Referencia rápida: tidymodels en R – IA para Científicos Sociales
…
4 Manipulación de datos con tidyverse

4.1 select, filter, mutate

# Seleccionar columnas
datos |> select(edad, voto, pais)

# A tibble: 800 × 3
    edad voto  pais    
   <dbl> <fct> <fct>   
 1    47 si    Chile   
 2    25 no    Chile   
 3    42 si    Mexico  
 4    39 si    Colombia
 5    31 no    Uruguay 
 6     5 no    Colombia
 7    30 no    Chile   
 8    26 no    Uruguay 
 9    42 no    Uruguay 
10    33 si    Mexico  
# ℹ 790 more rows

# Filtrar filas
datos |> filter(edad > 30, pais == "Uruguay")

# A tibble: 160 × 10
    edad educacion_anios ingreso_hogar confianza_gob interes_politica
   <dbl>           <dbl>         <dbl>         <dbl>            <dbl>
 1    31              13          1103             1                2
 2    42              11          1714             3                3
 3    37              20          2245             3                4
 4    49              12          1279             1                7
 5    50               9          2030             2                2
 6    35              18          2471             2                2
 7    38              10          1468             3                6
 8    49              10          1219             2                3
 9    50              11           663             4                2
10    46               9          1980             4                4
# ℹ 150 more rows
# ℹ 5 more variables: satisf_democracia <dbl>, pais <fct>, zona <fct>,
#   genero <fct>, voto <fct>
…
11.2 Grilla regular

# Crear grilla de combinaciones de hiperparámetros
grilla_regular <- grid_regular(
  mtry(range = c(2, 8)),    # probar de 2 a 8 variables por split
  min_n(range = c(5, 30)),  # probar de 5 a 30 obs mínimas por nodo
  levels = 5                # 5 valores por parámetro = 25 combinaciones
)

grilla_regular

# A tibble: 25 × 2
    mtry min_n
   <int> <int>
 1     2     5
 2     3     5
 3     5     5
 4     6     5
 5     8     5
 6     2    11
 7     3    11
 8     5    11
 9     6    11
10     8    11
# ℹ 15 more rows
…
11.4 Ejecutar el tuning

# Buscar la mejor combinación usando validación cruzada
resultados_tune <- tune_grid(
  wf_rf_tune,
  resamples = folds_5,
  grid      = grilla_regular,
  metrics   = metric_set(roc_auc, accuracy)
)

# Ver resultados
collect_metrics(resultados_tune)

# A tibble: 50 × 8
    mtry min_n .metric  .estimator  mean     n std_err .config         
   <int> <int> <chr>    <chr>      <dbl> <int>   <dbl> <chr>           
 1     2     5 accuracy binary     0.670     5  0.0215 pre0_mod01_post0
 2     2     5 roc_auc  binary     0.745     5  0.0157 pre0_mod01_post0
 3     2    11 accuracy binary     0.680     5  0.0230 pre0_mod02_post0
 4     2    11 roc_auc  binary     0.754     5  0.0149 pre0_mod02_post0
 5     2    17 accuracy binary     0.678     5  0.0199 pre0_mod03_post0
 6     2    17 roc_auc  binary     0.754     5  0.0152 pre0_mod03_post0
 7     2    23 accuracy binary     0.673     5  0.0221 pre0_mod04_post0
 8     2    23 roc_auc  binary     0.755     5  0.0155 pre0_mod04_post0
 9     2    30 accuracy binary     0.690     5  0.0252 pre0_mod05_post0
10     2    30 roc_auc  binary     0.759     5  0.0143 pre0_mod05_post0
# ℹ 40 more rows
…
